Categorical data
…
These two presentations contain the same information.

Last statement assumes that order does not matter.

Example: Palmer penguins

We load the penguin data

library(tidyverse)
library(palmerpenguins)
(penguins <- drop_na(penguins))

# A tibble: 333 × 8
   species island    bill_length_mm bill_depth_mm flipper_length_mm body_mass_g
   <fct>   <fct>              <dbl>         <dbl>             <int>       <int>
 1 Adelie  Torgersen           39.1          18.7               181        3750
 2 Adelie  Torgersen           39.5          17.4               186        3800
 3 Adelie  Torgersen           40.3          18                 195        3250
 4 Adelie  Torgersen           36.7          19.3               193        3450
 5 Adelie  Torgersen           39.3          20.6               190        3650
 6 Adelie  Torgersen           38.9          17.8               181        3625
 7 Adelie  Torgersen           39.2          19.6               195        4675
 8 Adelie  Torgersen           41.1          17.6               182        3200
 9 Adelie  Torgersen           38.6          21.2               191        3800
10 Adelie  Torgersen           34.6          21.1               198        4400
# ℹ 323 more rows
# ℹ 2 more variables: sex <fct>, year <int>
…
change <DATA> to the data set you are using

change <VARIABLE> to the variable for which you want to make a bar chart

later: change geom_bar to geom_<TYPE> to make a different type of graph

Load a new data set wage1, from the wooldridge package:

# install.packages("wooldridge", repos = "https://cloud.r-project.org") 
library(wooldridge)
data("wage1")
(wage1 <- as_tibble(wage1))

# A tibble: 526 × 24
    wage  educ exper tenure nonwhite female married numdep  smsa northcen south
   <dbl> <int> <int>  <int>    <int>  <int>   <int>  <int> <int>    <int> <int>
 1  3.10    11     2      0        0      1       0      2     1        0     0
 2  3.24    12    22      2        0      1       1      3     1        0     0
 3  3       11     2      0        0      0       0      2     0        0     0
 4  6        8    44     28        0      0       1      0     1        0     0
 5  5.30    12     7      2        0      0       1      1     0        0     0
 6  8.75    16     9      8        0      0       1      0     1        0     0
 7 11.2     18    15      7        0      0       0      0     1        0     0
 8  5       12     5      3        0      1       0      0     1        0     0
 9  3.60    12    26      4        0      1       0      2     1        0     0
10 18.2     17    22     21        0      0       1      0     1        0     0
# ℹ 516 more rows
# ℹ 13 more variables: west <int>, construc <int>, ndurman <int>,
#   trcommpu <int>, trade <int>, services <int>, profserv <int>, profocc <int>,
#   clerocc <int>, servocc <int>, lwage <dbl>, expersq <int>, tenursq <int>
…
